<?xml version="1.0" encoding="utf-8"?>
<!-- Generator: Adobe Illustrator 21.0.2, SVG Export Plug-In . SVG Version: 6.00 Build 0)  -->
<svg version="1.1" id="Layer_1" xmlns="http://www.w3.org/2000/svg" xmlns:xlink="http://www.w3.org/1999/xlink" x="0px" y="0px"
	 viewBox="0 0 25 25" style="enable-background:new 0 0 25 25;" xml:space="preserve">
<style type="text/css">
	.st0{fill:#CCCCCC;}
</style>
<g>
	<path class="st0" d="M22.8,23.4l-3.6-4.5c1.7-1.8,2.8-4.2,2.8-6.9c0-5.5-4.5-10-10-10S2,6.5,2,12c0,5.5,4.5,10,10,10
		c2.1,0,4.1-0.7,5.7-1.8l3.5,4.4c0.2,0.2,0.5,0.4,0.8,0.4c0.2,0,0.4-0.1,0.6-0.2C23.1,24.4,23.1,23.8,22.8,23.4z M4,12
		c0-4.4,3.6-8,8-8s8,3.6,8,8s-3.6,8-8,8S4,16.4,4,12z"/>
</g>
</svg>
