<?xml version="1.0" encoding="utf-8"?>
<!-- Generator: Adobe Illustrator 21.0.2, SVG Export Plug-In . SVG Version: 6.00 Build 0)  -->
<svg version="1.1" id="Слой_1" xmlns="http://www.w3.org/2000/svg" xmlns:xlink="http://www.w3.org/1999/xlink" x="0px" y="0px"
	 viewBox="0 0 25 25" style="enable-background:new 0 0 25 25;" xml:space="preserve">
<g id="Layer_1">
	<path d="M6.4,24c-0.4,0-0.7-0.1-1-0.3c-0.5-0.4-0.8-1-0.7-1.6l0.9-5.9L1.5,12c-0.5-0.5-0.6-1.1-0.4-1.7c0.2-0.6,0.7-1,1.3-1.1
		l5.8-0.9L11,2.9C11.3,2.4,11.8,2,12.5,2s1.2,0.4,1.5,0.9l2.7,5.3l5.8,0.9c0.6,0.1,1.1,0.5,1.3,1.1c0.2,0.6,0,1.3-0.4,1.7l-4.2,4.2
		l0.9,5.9c0.1,0.6-0.2,1.3-0.7,1.6c-0.5,0.4-1.2,0.4-1.8,0.1L12.3,21L7,23.7C7,23.9,6.7,24,6.4,24z M3.3,11l4.5,4.5l-1,6.3l5.7-2.9
		l5.7,2.9l-1-6.3l4.5-4.5l-6.3-1l-2.9-5.6L9.6,10L3.3,11z"/>
</g>
<g id="Layer_2">
</g>
</svg>
